{
  "count": 46669,
  "previous": null,
  "next": "https://freesound.org/apiv2/search/text/?&query=&filter=tag:loop&weights=&page=2",
  "results": [
    {
      "id": 326585,
      "name": "SNR_07.wav",
      "tags": [
        "neurofunk",
        "drum",
        "bass",
        "dnb",
        "snares",
        "bassline",
        "snare-samples",
        "beat",
        "heavy-kicks",
        "dubstep",
        "loop",
        "neuro-bassline",
        "kicks",
        "snare",
        "snare-drum",
        "kick"
      ],
      "license": "http://creativecommons.org/publicdomain/zero/1.0/",
      "username": "hardwareshaba"
    },
    {
      "id": 326586,
      "name": "Bass_18.wav",
      "tags": [
        "neurofunk",
        "drum",
        "bass",
        "dnb",
        "snares",
        "bassline",
        "snare-samples",
        "beat",
        "heavy-kicks",
        "dubstep",
        "loop",
        "neuro-bassline",
        "kicks",
        "snare",
        "snare-drum",
        "kick"
      ],
      "license": "http://creativecommons.org/publicdomain/zero/1.0/",
      "username": "hardwareshaba"
    },
    {
      "id": 326587,
      "name": "Bass_19.wav",
      "tags": [
        "neurofunk",
        "drum",
        "bass",
        "dnb",
        "snares",
        "bassline",
        "snare-samples",
        "beat",
        "heavy-kicks",
        "dubstep",
        "loop",
        "neuro-bassline",
        "kicks",
        "snare",
        "snare-drum",
        "kick"
      ],
      "license": "http://creativecommons.org/publicdomain/zero/1.0/",
      "username": "hardwareshaba"
    },
    {
      "id": 326588,
      "name": "Snare_01.wav",
      "tags": [
        "neurofunk",
        "drum",
        "bass",
        "dnb",
        "snares",
        "bassline",
        "snare-samples",
        "beat",
        "heavy-kicks",
        "dubstep",
        "loop",
        "neuro-bassline",
        "kicks",
        "snare",
        "snare-drum",
        "kick"
      ],
      "license": "http://creativecommons.org/publicdomain/zero/1.0/",
      "username": "hardwareshaba"
    },
    {
      "id": 326589,
      "name": "Snare_02.wav",
      "tags": [
        "neurofunk",
        "drum",
        "bass",
        "dnb",
        "snares",
        "bassline",
        "snare-samples",
        "beat",
        "heavy-kicks",
        "dubstep",
        "loop",
        "neuro-bassline",
        "kicks",
        "snare",
        "snare-drum",
        "kick"
      ],
      "license": "http://creativecommons.org/publicdomain/zero/1.0/",
      "username": "hardwareshaba"
    },
    {
      "id": 326590,
      "name": "Snare_03.wav",
      "tags": [
        "neurofunk",
        "drum",
        "bass",
        "dnb",
        "snares",
        "bassline",
        "snare-samples",
        "beat",
        "heavy-kicks",
        "dubstep",
        "loop",
        "neuro-bassline",
        "kicks",
        "snare",
        "snare-drum",
        "kick"
      ],
      "license": "http://creativecommons.org/publicdomain/zero/1.0/",
      "username": "hardwareshaba"
    },
    {
      "id": 326591,
      "name": "Snare_04.wav",
      "tags": [
        "neurofunk",
        "drum",
        "bass",
        "dnb",
        "snares",
        "bassline",
        "snare-samples",
        "beat",
        "heavy-kicks",
        "dubstep",
        "loop",
        "neuro-bassline",
        "kicks",
        "snare",
        "snare-drum",
        "kick"
      ],
      "license": "http://creativecommons.org/publicdomain/zero/1.0/",
      "username": "hardwareshaba"
    },
    {
      "id": 326592,
      "name": "Bass_12.wav",
      "tags": [
        "neurofunk",
        "drum",
        "bass",
        "dnb",
        "snares",
        "bassline",
        "snare-samples",
        "beat",
        "heavy-kicks",
        "dubstep",
        "loop",
        "neuro-bassline",
        "kicks",
        "snare",
        "snare-drum",
        "kick"
      ],
      "license": "http://creativecommons.org/publicdomain/zero/1.0/",
      "username": "hardwareshaba"
    },
    {
      "id": 326593,
      "name": "Bass_13.wav",
      "tags": [
        "neurofunk",
        "drum",
        "bass",
        "dnb",
        "snares",
        "bassline",
        "snare-samples",
        "beat",
        "heavy-kicks",
        "dubstep",
        "loop",
        "neuro-bassline",
        "kicks",
        "snare",
        "snare-drum",
        "kick"
      ],
      "license": "http://creativecommons.org/publicdomain/zero/1.0/",
      "username": "hardwareshaba"
    },
    {
      "id": 326594,
      "name": "Bass_10.wav",
      "tags": [
        "neurofunk",
        "drum",
        "bass",
        "dnb",
        "snares",
        "bassline",
        "snare-samples",
        "beat",
        "heavy-kicks",
        "dubstep",
        "loop",
        "neuro-bassline",
        "kicks",
        "snare",
        "snare-drum",
        "kick"
      ],
      "license": "http://creativecommons.org/publicdomain/zero/1.0/",
      "username": "hardwareshaba"
    },
    {
      "id": 326595,
      "name": "Bass_11.wav",
      "tags": [
        "neurofunk",
        "drum",
        "bass",
        "dnb",
        "snares",
        "bassline",
        "dubstep",
        "loop",
        "neuro-bassline",
        "snare-samples",
        "beat",
        "heavy-kicks",
        "kicks",
        "snare",
        "snare-drum",
        "kick"
      ],
      "license": "http://creativecommons.org/publicdomain/zero/1.0/",
      "username": "hardwareshaba"
    },
    {
      "id": 326596,
      "name": "Bass_16.wav",
      "tags": [
        "neurofunk",
        "drum",
        "bass",
        "dnb",
        "snares",
        "bassline",
        "snare-samples",
        "beat",
        "heavy-kicks",
        "dubstep",
        "loop",
        "neuro-bassline",
        "kicks",
        "snare",
        "snare-drum",
        "kick"
      ],
      "license": "http://creativecommons.org/publicdomain/zero/1.0/",
      "username": "hardwareshaba"
    },
    {
      "id": 326597,
      "name": "Bass_17.wav",
      "tags": [
        "neurofunk",
        "drum",
        "bass",
        "dnb",
        "snares",
        "bassline",
        "snare-samples",
        "beat",
        "heavy-kicks",
        "dubstep",
        "loop",
        "neuro-bassline",
        "kicks",
        "snare",
        "snare-drum",
        "kick"
      ],
      "license": "http://creativecommons.org/publicdomain/zero/1.0/",
      "username": "hardwareshaba"
    },
    {
      "id": 326598,
      "name": "Bass_14.wav",
      "tags": [
        "neurofunk",
        "drum",
        "bass",
        "dnb",
        "snares",
        "bassline",
        "snare-samples",
        "beat",
        "heavy-kicks",
        "dubstep",
        "loop",
        "neuro-bassline",
        "kicks",
        "snare",
        "snare-drum",
        "kick"
      ],
      "license": "http://creativecommons.org/publicdomain/zero/1.0/",
      "username": "hardwareshaba"
    },
    {
      "id": 326599,
      "name": "Bass_15.wav",
      "tags": [
        "neurofunk",
        "drum",
        "bass",
        "dnb",
        "snares",
        "bassline",
        "snare-samples",
        "beat",
        "heavy-kicks",
        "dubstep",
        "loop",
        "neuro-bassline",
        "kicks",
        "snare",
        "snare-drum",
        "kick"
      ],
      "license": "http://creativecommons.org/publicdomain/zero/1.0/",
      "username": "hardwareshaba"
    }
  ]
}
